<svg width="18" height="18" viewBox="0 0 18 18" fill="none" xmlns="http://www.w3.org/2000/svg">
<path d="M2.00056 17V15.2229C1.98404 14.2968 2.33591 13.4021 2.97883 12.7354C3.62175 12.0687 4.50309 11.6846 5.42913 11.6674H12.2863C13.2123 11.6846 14.0937 12.0687 14.7366 12.7354C15.3795 13.4021 15.7314 14.2968 15.7148 15.2229V17H2.00056ZM5.42913 4.55657C5.4123 3.63033 5.76404 2.73532 6.40699 2.06837C7.04994 1.40141 7.93146 1.01712 8.8577 1C9.78394 1.01712 10.6655 1.40141 11.3084 2.06837C11.9514 2.73532 12.3031 3.63033 12.2863 4.55657C12.3025 5.48242 11.9505 6.37684 11.3076 7.0433C10.6647 7.70976 9.78354 8.09373 8.8577 8.11086C7.93186 8.09373 7.05069 7.70976 6.40781 7.0433C5.76492 6.37684 5.41292 5.48242 5.42913 4.55657V4.55657Z" stroke="#969696" stroke-width="1.5" stroke-linecap="round" stroke-linejoin="round"/>
</svg>
